HARRISTON,ON,Canada,207.184.201.96,207.184.201.127
LISTOWEL,ON,Canada,206.94.136.96,206.94.136.111
QUESNEL,BC,Canada,204.125.92.0,204.125.92.63
QUESNEL,BC,Canada,206.89.255.80,206.89.255.95
RICHMOND HILL,ON,Canada,206.92.195.144,206.92.195.159
RICHMOND HILL,ON,Canada,206.93.243.192,206.93.243.255
RICHMOND HILL,ON,Canada,206.93.204.32,206.93.204.63
CALGARY,AB,Canada,204.224.169.0,204.224.169.127
CALGARY,AB,Canada,198.249.147.192,198.249.147.223
WINDSOR,NS,Canada,206.88.41.192,206.88.41.207
VICTORIA,BC,Canada,206.93.4.0,206.93.4.63
VICTORIA,BC,Canada,199.194.91.160,199.194.91.191
ST. THOMAS,ON,Canada,206.93.58.192,206.93.58.255
THORNHILL,ON,Canada,198.249.167.192,198.249.167.223
WINNIPEG,MB,Canada,207.184.163.64,207.184.163.127
WINNIPEG,MB,Canada,192.224.208.160,192.224.208.175
WAINWRIGHT,AB,Canada,206.94.4.128,206.94.4.191
TORONTO,ON,Canada,199.194.6.0,199.194.6.63
EDMUNDSTON,NB,Canada,206.88.249.112,206.88.249.127
DARTMOUTH,NS,Canada,207.184.135.0,207.184.135.63
KING CITY,ON,Canada,206.95.187.0,206.95.187.63
KUALA LAMPUR,Kedah,Malaysia,172.20.20.64,172.20.20.240
CALGARY,AB,Canada,206.88.132.128,206.88.132.191
CALGARY,AB,Canada,204.125.189.0,204.125.189.127
CALGARY,AB,Canada,206.94.13.160,206.94.13.191
EMBRUN,ON,Canada,206.94.66.128,206.94.66.191
EMBRUN,ON,Canada,206.94.59.160,206.94.59.191
BURNABY,BC,Canada,204.125.151.128,204.125.151.159
BURNABY,BC,Canada,206.93.228.192,206.93.228.255
BURNABY,BC,Canada,1.0.114.0,1.0.114.255
