{
  "BRANCH": [
    {
      "BRANCH_NAME": "trunk",
      "STATUS": "enabled",
      "IXTESTER_BRANCH": "trunk",
      "AUTOMATION_MAILING_LIST": "trunk"
    },
    {
      "BRANCH_NAME": "releases/4.7.4",
      "STATUS": "disabled",
      "IXTESTER_BRANCH": "trunk",
      "AUTOMATION_MAILING_LIST": "trunk"
    }
  ]
}
