{
  "DEVICE": [
    {
      "IP": "10.36.168.81",
      "MODEL": "5288",
      "DEVICE_TYPE": "PPC",
      "STATUS": "enabled"
    },
    {
      "IP": "10.36.168.118",
      "MODEL": "5260",
      "DEVICE_TYPE": "PPC",
      "STATUS": "disabled"
    },
    {
      "IP": "10.36.168.226",
      "MODEL": "7300",
      "DEVICE_TYPE": "X86",
      "STATUS": "enabled"
    },
    {
      "IP": "10.36.168.201",
      "MODEL": "7300",
      "DEVICE_TYPE": "X86",
      "STATUS": "enabled"
    },
    {
      "IP": "10.36.168.65",
      "MODEL": "7300",
      "DEVICE_TYPE": "X86",
      "STATUS": "disabled"
    },
    {
      "IP": "10.36.168.161",
      "MODEL": "6322",
      "DEVICE_TYPE": "X86",
      "STATUS": "enabled"
    },
    {
      "IP": "10.36.168.169",
      "MODEL": "6322",
      "DEVICE_TYPE": "X86",
      "STATUS": "enabled"
    },
    {
      "IP": "10.36.169.83",
      "MODEL": "6212",
      "DEVICE_TYPE": "X86",
      "STATUS": "enabled"
    },
    {
      "IP": "10.36.148.16",
      "MODEL": "6323",
      "DEVICE_TYPE": "X86",
      "STATUS": "enabled"
    },
    {
      "IP": "10.36.168.50",
      "MODEL": "E40",
      "DEVICE_TYPE": "OEM",
      "STATUS": "enabled"
    },
    {
      "IP": "10.36.168.69",
      "MODEL": "E100",
      "DEVICE_TYPE": "OEM",
      "STATUS": "enabled"
    },
    {
      "IP": "10.36.168.86",
      "MODEL": "E100",
      "DEVICE_TYPE": "OEM",
      "STATUS": "enabled"
    },
    {
      "IP": "10.36.168.56",
      "MODEL": "E100",
      "DEVICE_TYPE": "OEM",
      "STATUS": "enabled"
    },
    {
      "IP": "10.36.168.49",
      "MODEL": "7712",
      "DEVICE_TYPE": "OEM",
      "STATUS": "enabled"
    }
  ]
}
